<?xml version="1.0" encoding="utf-8"?>
<queryResult>
	<type>Frame_Type</type>
	<frame>
		<id>38</id>
		<time>19</time>
	</frame>
	<frame>
		<id>39</id>
		<time>19</time>
	</frame>
	<frame>
		<id>40</id>
		<time>20</time>
	</frame>
	<frame>
		<id>41</id>
		<time>20</time>
	</frame>
	<frame>
		<id>42</id>
		<time>21</time>
	</frame>
	<frame>
		<id>43</id>
		<time>21</time>
	</frame>
	<frame>
		<id>44</id>
		<time>22</time>
	</frame>
	<frame>
		<id>77</id>
		<time>38</time>
	</frame>
	<frame>
		<id>78</id>
		<time>39</time>
	</frame>
	<frame>
		<id>79</id>
		<time>39</time>
	</frame>
	<frame>
		<id>80</id>
		<time>40</time>
	</frame>
	<frame>
		<id>97</id>
		<time>48</time>
	</frame>
	<frame>
		<id>98</id>
		<time>49</time>
	</frame>
	<frame>
		<id>99</id>
		<time>49</time>
	</frame>
	<frame>
		<id>100</id>
		<time>50</time>
	</frame>
	<frame>
		<id>101</id>
		<time>50</time>
	</frame>
	<frame>
		<id>102</id>
		<time>51</time>
	</frame>
	<frame>
		<id>103</id>
		<time>51</time>
	</frame>
	<frame>
		<id>135</id>
		<time>67</time>
	</frame>
	<frame>
		<id>136</id>
		<time>68</time>
	</frame>
	<frame>
		<id>161</id>
		<time>80</time>
	</frame>
	<frame>
		<id>162</id>
		<time>81</time>
	</frame>
	<frame>
		<id>163</id>
		<time>81</time>
	</frame>
	<frame>
		<id>164</id>
		<time>82</time>
	</frame>
	<frame>
		<id>165</id>
		<time>82</time>
	</frame>
</queryResult>

