<?xml version="1.0" encoding="utf-8"?>
<video>
	<frame>
		<id>0</id>
		<time>0</time>
		<gameTime/>
		<gameResult/>
		<type>2</type>
		<location>2</location>
		<numberOfPlayers>
			<team>4</team>
			<team>5</team>
			<team>4</team>
		</numberOfPlayers>
		<teamNames>
			<teamN>France</teamN>
			<teamN>Portugal</teamN>
			<teamN>Referee/Staff/Missmatch</teamN>
		</teamNames>
	</frame>
	<frame>
		<id>1</id>
		<time>0</time>
		<gameTime/>
		<gameResult/>
		<type>2</type>
		<location>2</location>
		<numberOfPlayers>
			<team>7</team>
			<team>3</team>
			<team>2</team>
		</numberOfPlayers>
		<teamNames>
			<teamN>Portugal</teamN>
			<teamN>France</teamN>
			<teamN>Referee/Staff/Missmatch</teamN>
		</teamNames>
	</frame>
	<frame>
		<id>2</id>
		<time>1</time>
		<gameTime/>
		<gameResult/>
		<type>2</type>
		<location>2</location>
		<numberOfPlayers>
			<team>7</team>
			<team>3</team>
			<team>2</team>
		</numberOfPlayers>
		<teamNames>
			<teamN>Portugal</teamN>
			<teamN>France</teamN>
			<teamN>Referee/Staff/Missmatch</teamN>
		</teamNames>
	</frame>
	<frame>
		<id>3</id>
		<time>1</time>
		<gameTime/>
		<gameResult/>
		<type>2</type>
		<location>2</location>
		<numberOfPlayers>
			<team>7</team>
			<team>3</team>
			<team>2</team>
		</numberOfPlayers>
		<teamNames>
			<teamN>Portugal</teamN>
			<teamN>France</teamN>
			<teamN>Referee/Staff/Missmatch</teamN>
		</teamNames>
	</frame>
	<frame>
		<id>4</id>
		<time>2</time>
		<gameTime/>
		<gameResult/>
		<type>2</type>
		<location>2</location>
		<numberOfPlayers>
			<team>7</team>
			<team>3</team>
			<team>2</team>
		</numberOfPlayers>
		<teamNames>
			<teamN>Portugal</teamN>
			<teamN>France</teamN>
			<teamN>Referee/Staff/Missmatch</teamN>
		</teamNames>
	</frame>
	<frame>
		<id>5</id>
		<time>2</time>
		<gameTime/>
		<gameResult/>
		<type>2</type>
		<location>3</location>
		<numberOfPlayers>
			<team>6</team>
			<team>3</team>
			<team>2</team>
		</numberOfPlayers>
		<teamNames>
			<teamN>Portugal</teamN>
			<teamN>France</teamN>
			<teamN>Referee/Staff/Missmatch</teamN>
		</teamNames>
	</frame>
	<frame>
		<id>6</id>
		<time>3</time>
		<gameTime/>
		<gameResult/>
		<type>2</type>
		<location>2</location>
		<numberOfPlayers>
			<team>5</team>
			<team>5</team>
			<team>2</team>
		</numberOfPlayers>
		<teamNames>
			<teamN>France</teamN>
			<teamN>Portugal</teamN>
			<teamN>Referee/Staff/Missmatch</teamN>
		</teamNames>
	</frame>
	<frame>
		<id>7</id>
		<time>3</time>
		<gameTime/>
		<gameResult/>
		<type>2</type>
		<location>3</location>
		<numberOfPlayers>
			<team>8</team>
			<team>4</team>
			<team>2</team>
		</numberOfPlayers>
		<teamNames>
			<teamN>Portugal</teamN>
			<teamN>France</teamN>
			<teamN>Referee/Staff/Missmatch</teamN>
		</teamNames>
	</frame>
	<frame>
		<id>8</id>
		<time>4</time>
		<gameTime/>
		<gameResult/>
		<type>2</type>
		<location>3</location>
		<numberOfPlayers>
			<team>5</team>
			<team>5</team>
			<team>1</team>
		</numberOfPlayers>
		<teamNames>
			<teamN>France</teamN>
			<teamN>Portugal</teamN>
			<teamN>Referee/Staff/Missmatch</teamN>
		</teamNames>
	</frame>
	<frame>
		<id>9</id>
		<time>4</time>
		<gameTime/>
		<gameResult/>
		<type>2</type>
		<location>3</location>
		<numberOfPlayers>
			<team>8</team>
			<team>6</team>
			<team>1</team>
		</numberOfPlayers>
		<teamNames>
			<teamN>France</teamN>
			<teamN>Portugal</teamN>
			<teamN>Referee/Staff/Missmatch</teamN>
		</teamNames>
	</frame>
	<frame>
		<id>10</id>
		<time>5</time>
		<gameTime/>
		<gameResult/>
		<type>2</type>
		<location>3</location>
		<numberOfPlayers>
			<team>8</team>
			<team>5</team>
			<team>2</team>
		</numberOfPlayers>
		<teamNames>
			<teamN>France</teamN>
			<teamN>Portugal</teamN>
			<teamN>Referee/Staff/Missmatch</teamN>
		</teamNames>
	</frame>
	<frame>
		<id>11</id>
		<time>5</time>
		<gameTime/>
		<gameResult/>
		<type>2</type>
		<location>3</location>
		<numberOfPlayers>
			<team>7</team>
			<team>5</team>
			<team>1</team>
		</numberOfPlayers>
		<teamNames>
			<teamN>France</teamN>
			<teamN>Portugal</teamN>
			<teamN>Referee/Staff/Missmatch</teamN>
		</teamNames>
	</frame>
	<frame>
		<id>12</id>
		<time>6</time>
		<gameTime/>
		<gameResult/>
		<type>2</type>
		<location>3</location>
		<numberOfPlayers>
			<team>5</team>
			<team>6</team>
			<team>2</team>
		</numberOfPlayers>
		<teamNames>
			<teamN>France</teamN>
			<teamN>Portugal</teamN>
			<teamN>Referee/Staff/Missmatch</teamN>
		</teamNames>
	</frame>
	<frame>
		<id>13</id>
		<time>6</time>
		<gameTime/>
		<gameResult/>
		<type>2</type>
		<location>3</location>
		<numberOfPlayers>
			<team>6</team>
			<team>5</team>
			<team>1</team>
		</numberOfPlayers>
		<teamNames>
			<teamN>France</teamN>
			<teamN>Portugal</teamN>
			<teamN>Referee/Staff/Missmatch</teamN>
		</teamNames>
	</frame>
	<frame>
		<id>14</id>
		<time>7</time>
		<gameTime>ET00:O4</gameTime>
		<gameResult>POR 0-0 FRA </gameResult>
		<type>2</type>
		<location>3</location>
		<numberOfPlayers>
			<team>6</team>
			<team>6</team>
		</numberOfPlayers>
		<teamNames>
			<teamN>France</teamN>
			<teamN>Portugal</teamN>
		</teamNames>
	</frame>
	<frame>
		<id>15</id>
		<time>7</time>
		<gameTime>ET00:O4</gameTime>
		<gameResult>POR O-O FRA </gameResult>
		<type>2</type>
		<location>3</location>
		<numberOfPlayers>
			<team>5</team>
			<team>5</team>
			<team>2</team>
		</numberOfPlayers>
		<teamNames>
			<teamN>Portugal</teamN>
			<teamN>France</teamN>
			<teamN>Referee/Staff/Missmatch</teamN>
		</teamNames>
	</frame>
	<frame>
		<id>16</id>
		<time>8</time>
		<gameTime/>
		<gameResult/>
		<type>2</type>
		<location>3</location>
		<numberOfPlayers>
			<team>5</team>
			<team>7</team>
			<team>1</team>
		</numberOfPlayers>
		<teamNames>
			<teamN>Portugal</teamN>
			<teamN>France</teamN>
			<teamN>Referee/Staff/Missmatch</teamN>
		</teamNames>
	</frame>
	<frame>
		<id>17</id>
		<time>8</time>
		<gameTime>ETO0:O5</gameTime>
		<gameResult>POR 0-0 FRA </gameResult>
		<type>2</type>
		<location>3</location>
		<numberOfPlayers>
			<team>7</team>
			<team>6</team>
			<team>1</team>
		</numberOfPlayers>
		<teamNames>
			<teamN>France</teamN>
			<teamN>Portugal</teamN>
			<teamN>Referee/Staff/Missmatch</teamN>
		</teamNames>
	</frame>
	<frame>
		<id>18</id>
		<time>9</time>
		<gameTime>ETO0:06</gameTime>
		<gameResult>POR 0-0 FRA </gameResult>
		<type>2</type>
		<location>3</location>
		<numberOfPlayers>
			<team>7</team>
			<team>6</team>
		</numberOfPlayers>
		<teamNames>
			<teamN>France</teamN>
			<teamN>Portugal</teamN>
		</teamNames>
	</frame>
	<frame>
		<id>19</id>
		<time>9</time>
		<gameTime>ET00:O6</gameTime>
		<gameResult>POR 0-0 FRA </gameResult>
		<type>2</type>
		<location>3</location>
		<numberOfPlayers>
			<team>8</team>
			<team>3</team>
			<team>3</team>
		</numberOfPlayers>
		<teamNames>
			<teamN>France</teamN>
			<teamN>Portugal</teamN>
			<teamN>Referee/Staff/Missmatch</teamN>
		</teamNames>
	</frame>
	<frame>
		<id>20</id>
		<time>10</time>
		<gameTime>ET00:O7</gameTime>
		<gameResult>POR 0-0 FRA </gameResult>
		<type>2</type>
		<location>3</location>
		<numberOfPlayers>
			<team>6</team>
			<team>5</team>
			<team>1</team>
		</numberOfPlayers>
		<teamNames>
			<teamN>Portugal</teamN>
			<teamN>France</teamN>
			<teamN>Referee/Staff/Missmatch</teamN>
		</teamNames>
	</frame>
	<frame>
		<id>21</id>
		<time>10</time>
		<gameTime>ETO0:O7</gameTime>
		<gameResult>POR 0-0 FRA </gameResult>
		<type>2</type>
		<location>3</location>
		<numberOfPlayers>
			<team>7</team>
			<team>2</team>
			<team>2</team>
		</numberOfPlayers>
		<teamNames>
			<teamN>Portugal</teamN>
			<teamN>France</teamN>
			<teamN>Referee/Staff/Missmatch</teamN>
		</teamNames>
	</frame>
	<frame>
		<id>22</id>
		<time>11</time>
		<gameTime>ETO0:08</gameTime>
		<gameResult>POR 0-0 FRA </gameResult>
		<type>2</type>
		<location>3</location>
		<numberOfPlayers>
			<team>5</team>
			<team>5</team>
			<team>1</team>
		</numberOfPlayers>
		<teamNames>
			<teamN>France</teamN>
			<teamN>Portugal</teamN>
			<teamN>Referee/Staff/Missmatch</teamN>
		</teamNames>
	</frame>
	<frame>
		<id>23</id>
		<time>11</time>
		<gameTime>ETO0:O8</gameTime>
		<gameResult>POR 0-0 FRA </gameResult>
		<type>2</type>
		<location>3</location>
		<numberOfPlayers>
			<team>8</team>
			<team>7</team>
			<team>1</team>
		</numberOfPlayers>
		<teamNames>
			<teamN>Portugal</teamN>
			<teamN>France</teamN>
			<teamN>Referee/Staff/Missmatch</teamN>
		</teamNames>
	</frame>
	<frame>
		<id>24</id>
		<time>12</time>
		<gameTime>ETO0:O9</gameTime>
		<gameResult>POR 0-0 FRA </gameResult>
		<type>2</type>
		<location>3</location>
		<numberOfPlayers>
			<team>6</team>
			<team>5</team>
			<team>1</team>
		</numberOfPlayers>
		<teamNames>
			<teamN>Portugal</teamN>
			<teamN>France</teamN>
			<teamN>Referee/Staff/Missmatch</teamN>
		</teamNames>
	</frame>
	<frame>
		<id>25</id>
		<time>12</time>
		<gameTime>ET00:09</gameTime>
		<gameResult>POR 0-0 FRA </gameResult>
		<type>2</type>
		<location>3</location>
		<numberOfPlayers>
			<team>6</team>
			<team>7</team>
		</numberOfPlayers>
		<teamNames>
			<teamN>France</teamN>
			<teamN>Portugal</teamN>
		</teamNames>
	</frame>
	<frame>
		<id>26</id>
		<time>13</time>
		<gameTime>ET00:10</gameTime>
		<gameResult>POR 0-0 FRA </gameResult>
		<type>2</type>
		<location>3</location>
		<numberOfPlayers>
			<team>9</team>
			<team>3</team>
			<team>1</team>
		</numberOfPlayers>
		<teamNames>
			<teamN>Portugal</teamN>
			<teamN>France</teamN>
			<teamN>Referee/Staff/Missmatch</teamN>
		</teamNames>
	</frame>
	<frame>
		<id>27</id>
		<time>13</time>
		<gameTime>ET00:10</gameTime>
		<gameResult>POR 0-0 FRA </gameResult>
		<type>2</type>
		<location>3</location>
		<numberOfPlayers>
			<team>7</team>
			<team>6</team>
			<team>1</team>
		</numberOfPlayers>
		<teamNames>
			<teamN>France</teamN>
			<teamN>Portugal</teamN>
			<teamN>Referee/Staff/Missmatch</teamN>
		</teamNames>
	</frame>
	<frame>
		<id>28</id>
		<time>14</time>
		<gameTime>ET00:11</gameTime>
		<gameResult>1 POR 0-0 FRA </gameResult>
		<type>2</type>
		<location>3</location>
		<numberOfPlayers>
			<team>7</team>
			<team>5</team>
			<team>2</team>
		</numberOfPlayers>
		<teamNames>
			<teamN>Portugal</teamN>
			<teamN>France</teamN>
			<teamN>Referee/Staff/Missmatch</teamN>
		</teamNames>
	</frame>
	<frame>
		<id>29</id>
		<time>14</time>
		<gameTime>ET00:11</gameTime>
		<gameResult>1 POR 0-0 FRA </gameResult>
		<type>2</type>
		<location>3</location>
		<numberOfPlayers>
			<team>8</team>
			<team>5</team>
			<team>2</team>
		</numberOfPlayers>
		<teamNames>
			<teamN>Portugal</teamN>
			<teamN>France</teamN>
			<teamN>Referee/Staff/Missmatch</teamN>
		</teamNames>
	</frame>
	<frame>
		<id>30</id>
		<time>15</time>
		<gameTime>ET00:12</gameTime>
		<gameResult>POR 0&apos;0 FRA </gameResult>
		<type>2</type>
		<location>3</location>
		<numberOfPlayers>
			<team>10</team>
			<team>4</team>
		</numberOfPlayers>
		<teamNames>
			<teamN>Portugal</teamN>
			<teamN>France</teamN>
		</teamNames>
	</frame>
	<frame>
		<id>31</id>
		<time>15</time>
		<gameTime>ET00:1:</gameTime>
		<gameResult>2 POR 0-0 FRA </gameResult>
		<type>2</type>
		<location>3</location>
		<numberOfPlayers>
			<team>7</team>
			<team>4</team>
		</numberOfPlayers>
		<teamNames>
			<teamN>Portugal</teamN>
			<teamN>France</teamN>
		</teamNames>
	</frame>
	<frame>
		<id>32</id>
		<time>16</time>
		<gameTime>ET00:11</gameTime>
		<gameResult>3 POR O-0 FRA </gameResult>
		<type>2</type>
		<location>3</location>
		<numberOfPlayers>
			<team>8</team>
			<team>6</team>
			<team>1</team>
		</numberOfPlayers>
		<teamNames>
			<teamN>France</teamN>
			<teamN>Portugal</teamN>
			<teamN>Referee/Staff/Missmatch</teamN>
		</teamNames>
	</frame>
	<frame>
		<id>33</id>
		<time>16</time>
		<gameTime>ET00:11</gameTime>
		<gameResult>3 POR 0-0 FRA </gameResult>
		<type>2</type>
		<location>3</location>
		<numberOfPlayers>
			<team>7</team>
			<team>3</team>
			<team>4</team>
		</numberOfPlayers>
		<teamNames>
			<teamN>France</teamN>
			<teamN>Portugal</teamN>
			<teamN>Referee/Staff/Missmatch</teamN>
		</teamNames>
	</frame>
	<frame>
		<id>34</id>
		<time>17</time>
		<gameTime>ET00:L</gameTime>
		<gameResult>4 POR 0-0 FRA </gameResult>
		<type>2</type>
		<location>3</location>
		<numberOfPlayers>
			<team>7</team>
			<team>5</team>
		</numberOfPlayers>
		<teamNames>
			<teamN>France</teamN>
			<teamN>Portugal</teamN>
		</teamNames>
	</frame>
	<frame>
		<id>35</id>
		<time>17</time>
		<gameTime>ET00:14</gameTime>
		<gameResult>POR 0-0 FRA </gameResult>
		<type>2</type>
		<location>3</location>
		<numberOfPlayers>
			<team>5</team>
			<team>3</team>
			<team>1</team>
		</numberOfPlayers>
		<teamNames>
			<teamN>France</teamN>
			<teamN>Portugal</teamN>
			<teamN>Referee/Staff/Missmatch</teamN>
		</teamNames>
	</frame>
	<frame>
		<id>36</id>
		<time>18</time>
		<gameTime>ET00:11</gameTime>
		<gameResult>5 POR 0-0 FRA </gameResult>
		<type>2</type>
		<location>3</location>
		<numberOfPlayers>
			<team>5</team>
			<team>5</team>
			<team>1</team>
		</numberOfPlayers>
		<teamNames>
			<teamN>France</teamN>
			<teamN>Portugal</teamN>
			<teamN>Referee/Staff/Missmatch</teamN>
		</teamNames>
	</frame>
	<frame>
		<id>37</id>
		<time>18</time>
		<gameTime>ET00:1f</gameTime>
		<gameResult>5 POR 0-0 FRA </gameResult>
		<type>2</type>
		<location>3</location>
		<numberOfPlayers>
			<team>5</team>
			<team>5</team>
			<team>1</team>
		</numberOfPlayers>
		<teamNames>
			<teamN>France</teamN>
			<teamN>Portugal</teamN>
			<teamN>Referee/Staff/Missmatch</teamN>
		</teamNames>
	</frame>
	<frame>
		<id>38</id>
		<time>19</time>
		<gameTime/>
		<gameResult/>
		<type>1</type>
		<playerNames/>
		<playerRect/>
	</frame>
	<frame>
		<id>39</id>
		<time>19</time>
		<gameTime/>
		<gameResult/>
		<type>1</type>
		<playerNames/>
		<playerRect/>
	</frame>
	<frame>
		<id>40</id>
		<time>20</time>
		<gameTime>ETO0:1</gameTime>
		<gameResult>7 POR 0-0 FRA </gameResult>
		<type>1</type>
		<playerNames/>
		<playerRect/>
	</frame>
	<frame>
		<id>41</id>
		<time>20</time>
		<gameTime>900:1.</gameTime>
		<gameResult>7 POR 0-0 FRA </gameResult>
		<type>1</type>
		<playerNames>
			<name>Ricardo Quaresma</name>
			<name>Renato Sanches</name>
		</playerNames>
		<playerRect>
			<rect>
				<x>560</x>
				<y>174</y>
				<w>26</w>
				<h>26</h>
			</rect>
			<rect>
				<x>716</x>
				<y>118</y>
				<w>77</w>
				<h>77</h>
			</rect>
		</playerRect>
	</frame>
	<frame>
		<id>42</id>
		<time>21</time>
		<gameTime>ET00:11</gameTime>
		<gameResult>8 POR 0-0 FRA </gameResult>
		<type>1</type>
		<playerNames/>
		<playerRect/>
	</frame>
	<frame>
		<id>43</id>
		<time>21</time>
		<gameTime>ETO0:11</gameTime>
		<gameResult>8 POR 0-0 FRA </gameResult>
		<type>1</type>
		<playerNames/>
		<playerRect/>
	</frame>
	<frame>
		<id>44</id>
		<time>22</time>
		<gameTime>ETO0:1!</gameTime>
		<gameResult>. POR 0-0 FRA </gameResult>
		<type>1</type>
		<playerNames/>
		<playerRect/>
	</frame>
	<frame>
		<id>45</id>
		<time>22</time>
		<gameTime/>
		<gameResult/>
		<type>2</type>
		<location>3</location>
		<numberOfPlayers>
			<team>5</team>
			<team>4</team>
		</numberOfPlayers>
		<teamNames>
			<teamN>France</teamN>
			<teamN>Portugal</teamN>
		</teamNames>
	</frame>
	<frame>
		<id>46</id>
		<time>23</time>
		<gameTime/>
		<gameResult/>
		<type>2</type>
		<location>3</location>
		<numberOfPlayers>
			<team>5</team>
			<team>5</team>
		</numberOfPlayers>
		<teamNames>
			<teamN>Portugal</teamN>
			<teamN>France</teamN>
		</teamNames>
	</frame>
	<frame>
		<id>47</id>
		<time>23</time>
		<gameTime>ET00:20</gameTime>
		<gameResult>POR 0-0 FRA </gameResult>
		<type>2</type>
		<location>3</location>
		<numberOfPlayers>
			<team>5</team>
			<team>5</team>
		</numberOfPlayers>
		<teamNames>
			<teamN>France</teamN>
			<teamN>Portugal</teamN>
		</teamNames>
	</frame>
	<frame>
		<id>48</id>
		<time>24</time>
		<gameTime/>
		<gameResult/>
		<type>2</type>
		<location>3</location>
		<numberOfPlayers>
			<team>5</team>
			<team>5</team>
		</numberOfPlayers>
		<teamNames>
			<teamN>France</teamN>
			<teamN>Portugal</teamN>
		</teamNames>
	</frame>
	<frame>
		<id>49</id>
		<time>24</time>
		<gameTime>ET00:21</gameTime>
		<gameResult>POR 0-0 FRA </gameResult>
		<type>2</type>
		<location>3</location>
		<numberOfPlayers>
			<team>4</team>
			<team>3</team>
		</numberOfPlayers>
		<teamNames>
			<teamN>France</teamN>
			<teamN>Portugal</teamN>
		</teamNames>
	</frame>
	<frame>
		<id>50</id>
		<time>25</time>
		<gameTime>ET00:22</gameTime>
		<gameResult>POR 0-0 FRA </gameResult>
		<type>2</type>
		<location>3</location>
		<numberOfPlayers>
			<team>6</team>
			<team>2</team>
		</numberOfPlayers>
		<teamNames>
			<teamN>France</teamN>
			<teamN>Portugal</teamN>
		</teamNames>
	</frame>
	<frame>
		<id>51</id>
		<time>25</time>
		<gameTime>ET00:22</gameTime>
		<gameResult>POR 0-0 FRA </gameResult>
		<type>2</type>
		<location>3</location>
		<numberOfPlayers>
			<team>6</team>
			<team>2</team>
		</numberOfPlayers>
		<teamNames>
			<teamN>France</teamN>
			<teamN>Portugal</teamN>
		</teamNames>
	</frame>
	<frame>
		<id>52</id>
		<time>26</time>
		<gameTime>ET00:23</gameTime>
		<gameResult>POR 0-0 FRA </gameResult>
		<type>2</type>
		<location>3</location>
		<numberOfPlayers>
			<team>5</team>
			<team>3</team>
		</numberOfPlayers>
		<teamNames>
			<teamN>France</teamN>
			<teamN>Portugal</teamN>
		</teamNames>
	</frame>
	<frame>
		<id>53</id>
		<time>26</time>
		<gameTime>ET00:23</gameTime>
		<gameResult>POR 0-0 FRA </gameResult>
		<type>2</type>
		<location>3</location>
		<numberOfPlayers>
			<team>4</team>
			<team>5</team>
		</numberOfPlayers>
		<teamNames>
			<teamN>Portugal</teamN>
			<teamN>France</teamN>
		</teamNames>
	</frame>
	<frame>
		<id>54</id>
		<time>27</time>
		<gameTime>£T00:24</gameTime>
		<gameResult>POR 0-0 FRA </gameResult>
		<type>2</type>
		<location>3</location>
		<numberOfPlayers>
			<team>5</team>
			<team>4</team>
		</numberOfPlayers>
		<teamNames>
			<teamN>France</teamN>
			<teamN>Portugal</teamN>
		</teamNames>
	</frame>
	<frame>
		<id>55</id>
		<time>27</time>
		<gameTime>ET00:24</gameTime>
		<gameResult>POR 0-0 FRA </gameResult>
		<type>2</type>
		<location>3</location>
		<numberOfPlayers>
			<team>5</team>
			<team>6</team>
			<team>1</team>
		</numberOfPlayers>
		<teamNames>
			<teamN>Portugal</teamN>
			<teamN>France</teamN>
			<teamN>Referee/Staff/Missmatch</teamN>
		</teamNames>
	</frame>
	<frame>
		<id>56</id>
		<time>28</time>
		<gameTime>ETO0:2S</gameTime>
		<gameResult>POR 0-0 FRA </gameResult>
		<type>2</type>
		<location>3</location>
		<numberOfPlayers>
			<team>7</team>
			<team>4</team>
			<team>1</team>
		</numberOfPlayers>
		<teamNames>
			<teamN>Portugal</teamN>
			<teamN>France</teamN>
			<teamN>Referee/Staff/Missmatch</teamN>
		</teamNames>
	</frame>
	<frame>
		<id>57</id>
		<time>28</time>
		<gameTime>ETO0:2S</gameTime>
		<gameResult>POR 0-0 FRA </gameResult>
		<type>2</type>
		<location>3</location>
		<numberOfPlayers>
			<team>8</team>
			<team>5</team>
			<team>1</team>
		</numberOfPlayers>
		<teamNames>
			<teamN>Portugal</teamN>
			<teamN>France</teamN>
			<teamN>Referee/Staff/Missmatch</teamN>
		</teamNames>
	</frame>
	<frame>
		<id>58</id>
		<time>29</time>
		<gameTime>ETO0:26</gameTime>
		<gameResult>FOR 0-0 FRA </gameResult>
		<type>2</type>
		<location>3</location>
		<numberOfPlayers>
			<team>7</team>
			<team>6</team>
			<team>1</team>
		</numberOfPlayers>
		<teamNames>
			<teamN>Portugal</teamN>
			<teamN>France</teamN>
			<teamN>Referee/Staff/Missmatch</teamN>
		</teamNames>
	</frame>
	<frame>
		<id>59</id>
		<time>29</time>
		<gameTime>ET00:26</gameTime>
		<gameResult>POR 0-0 FRA </gameResult>
		<type>2</type>
		<location>3</location>
		<numberOfPlayers>
			<team>8</team>
			<team>6</team>
		</numberOfPlayers>
		<teamNames>
			<teamN>Portugal</teamN>
			<teamN>France</teamN>
		</teamNames>
	</frame>
	<frame>
		<id>60</id>
		<time>30</time>
		<gameTime/>
		<gameResult/>
		<type>2</type>
		<location>3</location>
		<numberOfPlayers>
			<team>7</team>
			<team>5</team>
		</numberOfPlayers>
		<teamNames>
			<teamN>Portugal</teamN>
			<teamN>France</teamN>
		</teamNames>
	</frame>
	<frame>
		<id>61</id>
		<time>30</time>
		<gameTime>ET00:27</gameTime>
		<gameResult>POR 0-0 FRA </gameResult>
		<type>2</type>
		<location>3</location>
		<numberOfPlayers>
			<team>6</team>
			<team>4</team>
			<team>1</team>
		</numberOfPlayers>
		<teamNames>
			<teamN>Portugal</teamN>
			<teamN>France</teamN>
			<teamN>Referee/Staff/Missmatch</teamN>
		</teamNames>
	</frame>
	<frame>
		<id>62</id>
		<time>31</time>
		<gameTime>ETOO:28</gameTime>
		<gameResult>POR 0-0 FRA </gameResult>
		<type>2</type>
		<location>3</location>
		<numberOfPlayers>
			<team>7</team>
			<team>5</team>
			<team>1</team>
		</numberOfPlayers>
		<teamNames>
			<teamN>France</teamN>
			<teamN>Portugal</teamN>
			<teamN>Referee/Staff/Missmatch</teamN>
		</teamNames>
	</frame>
	<frame>
		<id>63</id>
		<time>31</time>
		<gameTime>ET00:28</gameTime>
		<gameResult>POR 0-0 FRA </gameResult>
		<type>2</type>
		<location>3</location>
		<numberOfPlayers>
			<team>5</team>
			<team>6</team>
		</numberOfPlayers>
		<teamNames>
			<teamN>France</teamN>
			<teamN>Portugal</teamN>
		</teamNames>
	</frame>
	<frame>
		<id>64</id>
		<time>32</time>
		<gameTime>ETO0:29</gameTime>
		<gameResult>POR 0-0 FRA </gameResult>
		<type>2</type>
		<location>3</location>
		<numberOfPlayers>
			<team>5</team>
			<team>5</team>
		</numberOfPlayers>
		<teamNames>
			<teamN>France</teamN>
			<teamN>Portugal</teamN>
		</teamNames>
	</frame>
	<frame>
		<id>65</id>
		<time>32</time>
		<gameTime>ETO0:29</gameTime>
		<gameResult>POR 0-0 FRA </gameResult>
		<type>2</type>
		<location>3</location>
		<numberOfPlayers>
			<team>4</team>
			<team>5</team>
		</numberOfPlayers>
		<teamNames>
			<teamN>France</teamN>
			<teamN>Portugal</teamN>
		</teamNames>
	</frame>
	<frame>
		<id>66</id>
		<time>33</time>
		<gameTime>ET00:30</gameTime>
		<gameResult>POR 0-O FRA </gameResult>
		<type>2</type>
		<location>3</location>
		<numberOfPlayers>
			<team>5</team>
			<team>5</team>
		</numberOfPlayers>
		<teamNames>
			<teamN>France</teamN>
			<teamN>Portugal</teamN>
		</teamNames>
	</frame>
	<frame>
		<id>67</id>
		<time>33</time>
		<gameTime>ET00:3O</gameTime>
		<gameResult>POR 0-O FRA </gameResult>
		<type>2</type>
		<location>3</location>
		<numberOfPlayers>
			<team>5</team>
			<team>5</team>
		</numberOfPlayers>
		<teamNames>
			<teamN>France</teamN>
			<teamN>Portugal</teamN>
		</teamNames>
	</frame>
	<frame>
		<id>68</id>
		<time>34</time>
		<gameTime>ET00:31</gameTime>
		<gameResult>POR 0-0 FRA </gameResult>
		<type>2</type>
		<location>3</location>
		<numberOfPlayers>
			<team>5</team>
			<team>4</team>
			<team>1</team>
		</numberOfPlayers>
		<teamNames>
			<teamN>France</teamN>
			<teamN>Portugal</teamN>
			<teamN>Referee/Staff/Missmatch</teamN>
		</teamNames>
	</frame>
	<frame>
		<id>69</id>
		<time>34</time>
		<gameTime>ET00:31</gameTime>
		<gameResult>1 POR 0-0 FRA </gameResult>
		<type>2</type>
		<location>3</location>
		<numberOfPlayers>
			<team>5</team>
			<team>4</team>
		</numberOfPlayers>
		<teamNames>
			<teamN>France</teamN>
			<teamN>Portugal</teamN>
		</teamNames>
	</frame>
	<frame>
		<id>70</id>
		<time>35</time>
		<gameTime>ET00:32</gameTime>
		<gameResult>POR 0-0 FRA </gameResult>
		<type>2</type>
		<location>3</location>
		<numberOfPlayers>
			<team>5</team>
			<team>4</team>
		</numberOfPlayers>
		<teamNames>
			<teamN>France</teamN>
			<teamN>Portugal</teamN>
		</teamNames>
	</frame>
	<frame>
		<id>71</id>
		<time>35</time>
		<gameTime>ET00:32</gameTime>
		<gameResult>POR 0-0 FRA </gameResult>
		<type>2</type>
		<location>3</location>
		<numberOfPlayers>
			<team>5</team>
			<team>3</team>
		</numberOfPlayers>
		<teamNames>
			<teamN>France</teamN>
			<teamN>Portugal</teamN>
		</teamNames>
	</frame>
	<frame>
		<id>72</id>
		<time>36</time>
		<gameTime/>
		<gameResult/>
		<type>2</type>
		<location>3</location>
		<numberOfPlayers>
			<team>5</team>
			<team>6</team>
		</numberOfPlayers>
		<teamNames>
			<teamN>France</teamN>
			<teamN>Portugal</teamN>
		</teamNames>
	</frame>
	<frame>
		<id>73</id>
		<time>36</time>
		<gameTime/>
		<gameResult/>
		<type>2</type>
		<location>3</location>
		<numberOfPlayers>
			<team>4</team>
			<team>6</team>
			<team>1</team>
		</numberOfPlayers>
		<teamNames>
			<teamN>Portugal</teamN>
			<teamN>France</teamN>
			<teamN>Referee/Staff/Missmatch</teamN>
		</teamNames>
	</frame>
	<frame>
		<id>74</id>
		<time>37</time>
		<gameTime/>
		<gameResult/>
		<type>2</type>
		<location>3</location>
		<numberOfPlayers>
			<team>7</team>
			<team>4</team>
			<team>1</team>
		</numberOfPlayers>
		<teamNames>
			<teamN>France</teamN>
			<teamN>Portugal</teamN>
			<teamN>Referee/Staff/Missmatch</teamN>
		</teamNames>
	</frame>
	<frame>
		<id>75</id>
		<time>37</time>
		<gameTime/>
		<gameResult/>
		<type>2</type>
		<location>3</location>
		<numberOfPlayers>
			<team>7</team>
			<team>6</team>
			<team>2</team>
		</numberOfPlayers>
		<teamNames>
			<teamN>Portugal</teamN>
			<teamN>France</teamN>
			<teamN>Referee/Staff/Missmatch</teamN>
		</teamNames>
	</frame>
	<frame>
		<id>76</id>
		<time>38</time>
		<gameTime>ET00:35</gameTime>
		<gameResult>POR 0-0 FRA </gameResult>
		<type>2</type>
		<location>3</location>
		<numberOfPlayers>
			<team>8</team>
			<team>7</team>
			<team>2</team>
		</numberOfPlayers>
		<teamNames>
			<teamN>Portugal</teamN>
			<teamN>France</teamN>
			<teamN>Referee/Staff/Missmatch</teamN>
		</teamNames>
	</frame>
	<frame>
		<id>77</id>
		<time>38</time>
		<gameTime>ETO0:35</gameTime>
		<gameResult>POR 0-0 FRA </gameResult>
		<type>1</type>
		<playerNames/>
		<playerRect/>
	</frame>
	<frame>
		<id>78</id>
		<time>39</time>
		<gameTime>ETO0:36</gameTime>
		<gameResult>POR 0-0 FRA </gameResult>
		<type>1</type>
		<playerNames/>
		<playerRect/>
	</frame>
	<frame>
		<id>79</id>
		<time>39</time>
		<gameTime>ET00:36</gameTime>
		<gameResult>FOR 0-0 FRA </gameResult>
		<type>1</type>
		<playerNames>
			<name>Sissoko</name>
		</playerNames>
		<playerRect>
			<rect>
				<x>656</x>
				<y>94</y>
				<w>48</w>
				<h>48</h>
			</rect>
		</playerRect>
	</frame>
	<frame>
		<id>80</id>
		<time>40</time>
		<gameTime/>
		<gameResult/>
		<type>1</type>
		<playerNames>
			<name>Joao Mario</name>
			<name>Matuidi</name>
		</playerNames>
		<playerRect>
			<rect>
				<x>190</x>
				<y>194</y>
				<w>23</w>
				<h>23</h>
			</rect>
			<rect>
				<x>681</x>
				<y>150</y>
				<w>43</w>
				<h>43</h>
			</rect>
		</playerRect>
	</frame>
	<frame>
		<id>81</id>
		<time>40</time>
		<gameTime/>
		<gameResult/>
		<type>2</type>
		<location>3</location>
		<numberOfPlayers>
			<team>7</team>
			<team>6</team>
		</numberOfPlayers>
		<teamNames>
			<teamN>Portugal</teamN>
			<teamN>France</teamN>
		</teamNames>
	</frame>
	<frame>
		<id>82</id>
		<time>41</time>
		<gameTime>ET00:38</gameTime>
		<gameResult>POR 0-0 FRA </gameResult>
		<type>2</type>
		<location>3</location>
		<numberOfPlayers>
			<team>8</team>
			<team>5</team>
			<team>1</team>
		</numberOfPlayers>
		<teamNames>
			<teamN>Portugal</teamN>
			<teamN>France</teamN>
			<teamN>Referee/Staff/Missmatch</teamN>
		</teamNames>
	</frame>
	<frame>
		<id>83</id>
		<time>41</time>
		<gameTime>ETOO:38</gameTime>
		<gameResult>POR 0-0 FRA </gameResult>
		<type>2</type>
		<location>3</location>
		<numberOfPlayers>
			<team>7</team>
			<team>5</team>
		</numberOfPlayers>
		<teamNames>
			<teamN>Portugal</teamN>
			<teamN>France</teamN>
		</teamNames>
	</frame>
	<frame>
		<id>84</id>
		<time>42</time>
		<gameTime>ETOO:39</gameTime>
		<gameResult>POR 0-0 FRA </gameResult>
		<type>2</type>
		<location>3</location>
		<numberOfPlayers>
			<team>5</team>
			<team>6</team>
			<team>1</team>
		</numberOfPlayers>
		<teamNames>
			<teamN>Portugal</teamN>
			<teamN>France</teamN>
			<teamN>Referee/Staff/Missmatch</teamN>
		</teamNames>
	</frame>
	<frame>
		<id>85</id>
		<time>42</time>
		<gameTime>ET00:39</gameTime>
		<gameResult>POR 0-O FRA </gameResult>
		<type>2</type>
		<location>5</location>
		<numberOfPlayers>
			<team>6</team>
			<team>4</team>
		</numberOfPlayers>
		<teamNames>
			<teamN>Portugal</teamN>
			<teamN>France</teamN>
		</teamNames>
	</frame>
	<frame>
		<id>86</id>
		<time>43</time>
		<gameTime>ET00:40</gameTime>
		<gameResult>POR 0-0 FRA </gameResult>
		<type>2</type>
		<location>5</location>
		<numberOfPlayers>
			<team>7</team>
			<team>5</team>
		</numberOfPlayers>
		<teamNames>
			<teamN>Portugal</teamN>
			<teamN>France</teamN>
		</teamNames>
	</frame>
	<frame>
		<id>87</id>
		<time>43</time>
		<gameTime>ET00:40</gameTime>
		<gameResult>POR 0-0 FRA </gameResult>
		<type>2</type>
		<location>1</location>
		<numberOfPlayers>
			<team>8</team>
			<team>4</team>
		</numberOfPlayers>
		<teamNames>
			<teamN>Portugal</teamN>
			<teamN>France</teamN>
		</teamNames>
	</frame>
	<frame>
		<id>88</id>
		<time>44</time>
		<gameTime/>
		<gameResult/>
		<type>2</type>
		<location>1</location>
		<numberOfPlayers>
			<team>6</team>
			<team>2</team>
			<team>1</team>
		</numberOfPlayers>
		<teamNames>
			<teamN>Portugal</teamN>
			<teamN>France</teamN>
			<teamN>Referee/Staff/Missmatch</teamN>
		</teamNames>
	</frame>
	<frame>
		<id>89</id>
		<time>44</time>
		<gameTime/>
		<gameResult/>
		<type>2</type>
		<location>1</location>
		<numberOfPlayers>
			<team>6</team>
			<team>6</team>
		</numberOfPlayers>
		<teamNames>
			<teamN>Portugal</teamN>
			<teamN>France</teamN>
		</teamNames>
	</frame>
	<frame>
		<id>90</id>
		<time>45</time>
		<gameTime>ETOO:42</gameTime>
		<gameResult>POR 0-0 FRA </gameResult>
		<type>2</type>
		<location>1</location>
		<numberOfPlayers>
			<team>8</team>
			<team>4</team>
			<team>2</team>
		</numberOfPlayers>
		<teamNames>
			<teamN>Portugal</teamN>
			<teamN>France</teamN>
			<teamN>Referee/Staff/Missmatch</teamN>
		</teamNames>
	</frame>
	<frame>
		<id>91</id>
		<time>45</time>
		<gameTime>ET00:42</gameTime>
		<gameResult>POR 0-0 FRA </gameResult>
		<type>2</type>
		<location>5</location>
		<numberOfPlayers>
			<team>11</team>
			<team>2</team>
			<team>1</team>
		</numberOfPlayers>
		<teamNames>
			<teamN>Portugal</teamN>
			<teamN>France</teamN>
			<teamN>Referee/Staff/Missmatch</teamN>
		</teamNames>
	</frame>
	<frame>
		<id>92</id>
		<time>46</time>
		<gameTime>ET00:43</gameTime>
		<gameResult>POR 0-0 FRA </gameResult>
		<type>2</type>
		<location>4</location>
		<numberOfPlayers>
			<team>5</team>
			<team>4</team>
			<team>1</team>
		</numberOfPlayers>
		<teamNames>
			<teamN>Portugal</teamN>
			<teamN>France</teamN>
			<teamN>Referee/Staff/Missmatch</teamN>
		</teamNames>
	</frame>
	<frame>
		<id>93</id>
		<time>46</time>
		<gameTime>ET00:43</gameTime>
		<gameResult>POR 0-0 FRA </gameResult>
		<type>2</type>
		<location>5</location>
		<numberOfPlayers>
			<team>7</team>
			<team>3</team>
		</numberOfPlayers>
		<teamNames>
			<teamN>Portugal</teamN>
			<teamN>France</teamN>
		</teamNames>
	</frame>
	<frame>
		<id>94</id>
		<time>47</time>
		<gameTime>ET00:44</gameTime>
		<gameResult>POR 0-0 FRA </gameResult>
		<type>2</type>
		<location>4</location>
		<numberOfPlayers>
			<team>4</team>
			<team>6</team>
			<team>1</team>
		</numberOfPlayers>
		<teamNames>
			<teamN>France</teamN>
			<teamN>Portugal</teamN>
			<teamN>Referee/Staff/Missmatch</teamN>
		</teamNames>
	</frame>
	<frame>
		<id>95</id>
		<time>47</time>
		<gameTime>ET00:44</gameTime>
		<gameResult>POR 0-0 FRA </gameResult>
		<type>2</type>
		<location>3</location>
		<numberOfPlayers/>
		<teamNames/>
	</frame>
	<frame>
		<id>96</id>
		<time>48</time>
		<gameTime>ETO0:45</gameTime>
		<gameResult>POR 0-0 FRA </gameResult>
		<type>2</type>
		<location>3</location>
		<numberOfPlayers>
			<team>1</team>
		</numberOfPlayers>
		<teamNames>
			<teamN>France</teamN>
		</teamNames>
	</frame>
	<frame>
		<id>97</id>
		<time>48</time>
		<gameTime>ET00:45</gameTime>
		<gameResult>POR 0-0 FRA </gameResult>
		<type>1</type>
		<playerNames/>
		<playerRect/>
	</frame>
	<frame>
		<id>98</id>
		<time>49</time>
		<gameTime>ETO0:46</gameTime>
		<gameResult>FOR 0-0 FRA </gameResult>
		<type>1</type>
		<playerNames/>
		<playerRect/>
	</frame>
	<frame>
		<id>99</id>
		<time>49</time>
		<gameTime>ET00:46</gameTime>
		<gameResult>FOR 0-0 FRA </gameResult>
		<type>1</type>
		<playerNames/>
		<playerRect/>
	</frame>
	<frame>
		<id>100</id>
		<time>50</time>
		<gameTime>ET00:47</gameTime>
		<gameResult>FOR 0-0 FRA </gameResult>
		<type>1</type>
		<playerNames>
			<name>Giroud</name>
			<name>Laurent Koscielny</name>
		</playerNames>
		<playerRect>
			<rect>
				<x>345</x>
				<y>174</y>
				<w>47</w>
				<h>47</h>
			</rect>
			<rect>
				<x>245</x>
				<y>416</y>
				<w>56</w>
				<h>56</h>
			</rect>
		</playerRect>
	</frame>
	<frame>
		<id>101</id>
		<time>50</time>
		<gameTime>ETO0:47</gameTime>
		<gameResult>FOR 0-0 FRA </gameResult>
		<type>1</type>
		<playerNames>
			<name>Cristiano Ronaldo</name>
		</playerNames>
		<playerRect>
			<rect>
				<x>426</x>
				<y>137</y>
				<w>44</w>
				<h>44</h>
			</rect>
		</playerRect>
	</frame>
	<frame>
		<id>102</id>
		<time>51</time>
		<gameTime>E‘r00:48</gameTime>
		<gameResult>POR 0-0 FRA </gameResult>
		<type>1</type>
		<playerNames>
			<name>Giroud</name>
		</playerNames>
		<playerRect>
			<rect>
				<x>429</x>
				<y>128</y>
				<w>43</w>
				<h>43</h>
			</rect>
		</playerRect>
	</frame>
	<frame>
		<id>103</id>
		<time>51</time>
		<gameTime>ET00:48</gameTime>
		<gameResult>POR 0-0 FRA </gameResult>
		<type>1</type>
		<playerNames>
			<name>Jose Fonte</name>
		</playerNames>
		<playerRect>
			<rect>
				<x>367</x>
				<y>134</y>
				<w>44</w>
				<h>44</h>
			</rect>
		</playerRect>
	</frame>
	<frame>
		<id>104</id>
		<time>52</time>
		<gameTime>ETO0:49</gameTime>
		<gameResult>POR 0-0 FRA </gameResult>
		<type>2</type>
		<location>3</location>
		<numberOfPlayers>
			<team>2</team>
			<team>3</team>
			<team>1</team>
		</numberOfPlayers>
		<teamNames>
			<teamN>France</teamN>
			<teamN>Portugal</teamN>
			<teamN>Referee/Staff/Missmatch</teamN>
		</teamNames>
	</frame>
	<frame>
		<id>105</id>
		<time>52</time>
		<gameTime>ETO0:49</gameTime>
		<gameResult>POR 0-0 FRA </gameResult>
		<type>2</type>
		<location>3</location>
		<numberOfPlayers>
			<team>3</team>
			<team>3</team>
			<team>1</team>
		</numberOfPlayers>
		<teamNames>
			<teamN>France</teamN>
			<teamN>Portugal</teamN>
			<teamN>Referee/Staff/Missmatch</teamN>
		</teamNames>
	</frame>
	<frame>
		<id>106</id>
		<time>53</time>
		<gameTime>ETOO:50</gameTime>
		<gameResult>POR 0-0 FRA </gameResult>
		<type>2</type>
		<location>3</location>
		<numberOfPlayers>
			<team>5</team>
			<team>3</team>
			<team>1</team>
		</numberOfPlayers>
		<teamNames>
			<teamN>France</teamN>
			<teamN>Portugal</teamN>
			<teamN>Referee/Staff/Missmatch</teamN>
		</teamNames>
	</frame>
	<frame>
		<id>107</id>
		<time>53</time>
		<gameTime/>
		<gameResult/>
		<type>2</type>
		<location>3</location>
		<numberOfPlayers>
			<team>3</team>
			<team>3</team>
			<team>1</team>
		</numberOfPlayers>
		<teamNames>
			<teamN>France</teamN>
			<teamN>Portugal</teamN>
			<teamN>Referee/Staff/Missmatch</teamN>
		</teamNames>
	</frame>
	<frame>
		<id>108</id>
		<time>54</time>
		<gameTime>ETO0:51</gameTime>
		<gameResult>POR 0-0 FRA </gameResult>
		<type>2</type>
		<location>3</location>
		<numberOfPlayers>
			<team>4</team>
			<team>4</team>
			<team>1</team>
		</numberOfPlayers>
		<teamNames>
			<teamN>France</teamN>
			<teamN>Portugal</teamN>
			<teamN>Referee/Staff/Missmatch</teamN>
		</teamNames>
	</frame>
	<frame>
		<id>109</id>
		<time>54</time>
		<gameTime>E‘rO0:S1</gameTime>
		<gameResult>1 POR 0-0 FRA </gameResult>
		<type>2</type>
		<location>3</location>
		<numberOfPlayers>
			<team>3</team>
			<team>3</team>
			<team>2</team>
		</numberOfPlayers>
		<teamNames>
			<teamN>France</teamN>
			<teamN>Portugal</teamN>
			<teamN>Referee/Staff/Missmatch</teamN>
		</teamNames>
	</frame>
	<frame>
		<id>110</id>
		<time>55</time>
		<gameTime>ETO0:S2</gameTime>
		<gameResult>POR 0-0 FRA </gameResult>
		<type>2</type>
		<location>3</location>
		<numberOfPlayers>
			<team>4</team>
			<team>3</team>
		</numberOfPlayers>
		<teamNames>
			<teamN>France</teamN>
			<teamN>Portugal</teamN>
		</teamNames>
	</frame>
	<frame>
		<id>111</id>
		<time>55</time>
		<gameTime>ETO0:S2</gameTime>
		<gameResult>POR 0-0 FRA </gameResult>
		<type>2</type>
		<location>3</location>
		<numberOfPlayers>
			<team>3</team>
			<team>1</team>
			<team>1</team>
		</numberOfPlayers>
		<teamNames>
			<teamN>France</teamN>
			<teamN>Portugal</teamN>
			<teamN>Referee/Staff/Missmatch</teamN>
		</teamNames>
	</frame>
	<frame>
		<id>112</id>
		<time>56</time>
		<gameTime/>
		<gameResult/>
		<type>2</type>
		<location>3</location>
		<numberOfPlayers>
			<team>3</team>
			<team>2</team>
			<team>1</team>
		</numberOfPlayers>
		<teamNames>
			<teamN>France</teamN>
			<teamN>Portugal</teamN>
			<teamN>Referee/Staff/Missmatch</teamN>
		</teamNames>
	</frame>
	<frame>
		<id>113</id>
		<time>56</time>
		<gameTime/>
		<gameResult/>
		<type>2</type>
		<location>3</location>
		<numberOfPlayers>
			<team>4</team>
			<team>1</team>
			<team>3</team>
		</numberOfPlayers>
		<teamNames>
			<teamN>France</teamN>
			<teamN>Portugal</teamN>
			<teamN>Referee/Staff/Missmatch</teamN>
		</teamNames>
	</frame>
	<frame>
		<id>114</id>
		<time>57</time>
		<gameTime/>
		<gameResult/>
		<type>2</type>
		<location>3</location>
		<numberOfPlayers>
			<team>3</team>
			<team>3</team>
		</numberOfPlayers>
		<teamNames>
			<teamN>France</teamN>
			<teamN>Portugal</teamN>
		</teamNames>
	</frame>
	<frame>
		<id>115</id>
		<time>57</time>
		<gameTime>ET00:54</gameTime>
		<gameResult>POR 0-O FRA </gameResult>
		<type>2</type>
		<location>3</location>
		<numberOfPlayers>
			<team>2</team>
			<team>2</team>
			<team>3</team>
		</numberOfPlayers>
		<teamNames>
			<teamN>Portugal</teamN>
			<teamN>France</teamN>
			<teamN>Referee/Staff/Missmatch</teamN>
		</teamNames>
	</frame>
	<frame>
		<id>116</id>
		<time>58</time>
		<gameTime>ET00:55</gameTime>
		<gameResult>POR 0-0 FRA </gameResult>
		<type>2</type>
		<location>3</location>
		<numberOfPlayers>
			<team>4</team>
			<team>2</team>
			<team>1</team>
		</numberOfPlayers>
		<teamNames>
			<teamN>Portugal</teamN>
			<teamN>France</teamN>
			<teamN>Referee/Staff/Missmatch</teamN>
		</teamNames>
	</frame>
	<frame>
		<id>117</id>
		<time>58</time>
		<gameTime>ET00:55</gameTime>
		<gameResult>POR 0-0 FRA </gameResult>
		<type>2</type>
		<location>3</location>
		<numberOfPlayers>
			<team>4</team>
			<team>4</team>
		</numberOfPlayers>
		<teamNames>
			<teamN>Portugal</teamN>
			<teamN>France</teamN>
		</teamNames>
	</frame>
	<frame>
		<id>118</id>
		<time>59</time>
		<gameTime>ET00:56</gameTime>
		<gameResult>POR 0-0 FRA </gameResult>
		<type>2</type>
		<location>3</location>
		<numberOfPlayers>
			<team>3</team>
			<team>2</team>
		</numberOfPlayers>
		<teamNames>
			<teamN>Portugal</teamN>
			<teamN>France</teamN>
		</teamNames>
	</frame>
	<frame>
		<id>119</id>
		<time>59</time>
		<gameTime>ETO0:56</gameTime>
		<gameResult>POR 0-0 FRA </gameResult>
		<type>2</type>
		<location>4</location>
		<numberOfPlayers>
			<team>4</team>
			<team>1</team>
		</numberOfPlayers>
		<teamNames>
			<teamN>Portugal</teamN>
			<teamN>France</teamN>
		</teamNames>
	</frame>
	<frame>
		<id>120</id>
		<time>60</time>
		<gameTime>ET00:S7</gameTime>
		<gameResult>POR 0-0 FRA </gameResult>
		<type>2</type>
		<location>1</location>
		<numberOfPlayers>
			<team>5</team>
			<team>3</team>
		</numberOfPlayers>
		<teamNames>
			<teamN>Portugal</teamN>
			<teamN>France</teamN>
		</teamNames>
	</frame>
	<frame>
		<id>121</id>
		<time>60</time>
		<gameTime>ET00:S7</gameTime>
		<gameResult>POR 0-0 FRA </gameResult>
		<type>2</type>
		<location>1</location>
		<numberOfPlayers>
			<team>3</team>
			<team>2</team>
		</numberOfPlayers>
		<teamNames>
			<teamN>Portugal</teamN>
			<teamN>France</teamN>
		</teamNames>
	</frame>
	<frame>
		<id>122</id>
		<time>61</time>
		<gameTime>ET00:S8</gameTime>
		<gameResult>POR 0-0 FRA </gameResult>
		<type>2</type>
		<location>3</location>
		<numberOfPlayers>
			<team>4</team>
			<team>5</team>
		</numberOfPlayers>
		<teamNames>
			<teamN>Portugal</teamN>
			<teamN>France</teamN>
		</teamNames>
	</frame>
	<frame>
		<id>123</id>
		<time>61</time>
		<gameTime>ET00:S8</gameTime>
		<gameResult>POR 0-O FRA </gameResult>
		<type>2</type>
		<location>3</location>
		<numberOfPlayers>
			<team>3</team>
			<team>4</team>
			<team>3</team>
		</numberOfPlayers>
		<teamNames>
			<teamN>France</teamN>
			<teamN>Portugal</teamN>
			<teamN>Referee/Staff/Missmatch</teamN>
		</teamNames>
	</frame>
	<frame>
		<id>124</id>
		<time>62</time>
		<gameTime>ET00:59</gameTime>
		<gameResult>POR 0-0 FRA </gameResult>
		<type>2</type>
		<location>3</location>
		<numberOfPlayers>
			<team>6</team>
			<team>2</team>
		</numberOfPlayers>
		<teamNames>
			<teamN>Portugal</teamN>
			<teamN>France</teamN>
		</teamNames>
	</frame>
	<frame>
		<id>125</id>
		<time>62</time>
		<gameTime>ET00:59</gameTime>
		<gameResult>FOR 0-0 FRA </gameResult>
		<type>2</type>
		<location>3</location>
		<numberOfPlayers>
			<team>6</team>
			<team>2</team>
		</numberOfPlayers>
		<teamNames>
			<teamN>Portugal</teamN>
			<teamN>France</teamN>
		</teamNames>
	</frame>
	<frame>
		<id>126</id>
		<time>63</time>
		<gameTime>E&apos;r01:00</gameTime>
		<gameResult>POR 0-0 FRA </gameResult>
		<type>2</type>
		<location>3</location>
		<numberOfPlayers>
			<team>4</team>
			<team>2</team>
			<team>1</team>
		</numberOfPlayers>
		<teamNames>
			<teamN>Portugal</teamN>
			<teamN>France</teamN>
			<teamN>Referee/Staff/Missmatch</teamN>
		</teamNames>
	</frame>
	<frame>
		<id>127</id>
		<time>63</time>
		<gameTime>E&apos;r01:0O</gameTime>
		<gameResult>POR 0-0 FRA </gameResult>
		<type>2</type>
		<location>3</location>
		<numberOfPlayers>
			<team>6</team>
			<team>3</team>
			<team>1</team>
		</numberOfPlayers>
		<teamNames>
			<teamN>Portugal</teamN>
			<teamN>France</teamN>
			<teamN>Referee/Staff/Missmatch</teamN>
		</teamNames>
	</frame>
	<frame>
		<id>128</id>
		<time>64</time>
		<gameTime>ETO&apos;l:01</gameTime>
		<gameResult>POR 0-0 FRA </gameResult>
		<type>2</type>
		<location>3</location>
		<numberOfPlayers>
			<team>5</team>
			<team>5</team>
		</numberOfPlayers>
		<teamNames>
			<teamN>Portugal</teamN>
			<teamN>France</teamN>
		</teamNames>
	</frame>
	<frame>
		<id>129</id>
		<time>64</time>
		<gameTime>I-:T01:01</gameTime>
		<gameResult>POR 0-0 FRA </gameResult>
		<type>2</type>
		<location>3</location>
		<numberOfPlayers>
			<team>5</team>
			<team>6</team>
		</numberOfPlayers>
		<teamNames>
			<teamN>Portugal</teamN>
			<teamN>France</teamN>
		</teamNames>
	</frame>
	<frame>
		<id>130</id>
		<time>65</time>
		<gameTime>ET01:02</gameTime>
		<gameResult>POR 0-0 FRA </gameResult>
		<type>2</type>
		<location>3</location>
		<numberOfPlayers>
			<team>3</team>
			<team>4</team>
			<team>5</team>
		</numberOfPlayers>
		<teamNames>
			<teamN>Portugal</teamN>
			<teamN>France</teamN>
			<teamN>Referee/Staff/Missmatch</teamN>
		</teamNames>
	</frame>
	<frame>
		<id>131</id>
		<time>65</time>
		<gameTime>ET01:02</gameTime>
		<gameResult>POR 0-0 FRA </gameResult>
		<type>2</type>
		<location>3</location>
		<numberOfPlayers>
			<team>5</team>
			<team>5</team>
			<team>3</team>
		</numberOfPlayers>
		<teamNames>
			<teamN>Portugal</teamN>
			<teamN>France</teamN>
			<teamN>Referee/Staff/Missmatch</teamN>
		</teamNames>
	</frame>
	<frame>
		<id>132</id>
		<time>66</time>
		<gameTime>ETO1:03</gameTime>
		<gameResult>POR 0-0 FRA </gameResult>
		<type>2</type>
		<location>3</location>
		<numberOfPlayers>
			<team>6</team>
			<team>5</team>
			<team>2</team>
		</numberOfPlayers>
		<teamNames>
			<teamN>Portugal</teamN>
			<teamN>France</teamN>
			<teamN>Referee/Staff/Missmatch</teamN>
		</teamNames>
	</frame>
	<frame>
		<id>133</id>
		<time>66</time>
		<gameTime>ET01:O3</gameTime>
		<gameResult>POR 0-0 FRA </gameResult>
		<type>2</type>
		<location>3</location>
		<numberOfPlayers>
			<team>3</team>
			<team>6</team>
			<team>2</team>
		</numberOfPlayers>
		<teamNames>
			<teamN>Portugal</teamN>
			<teamN>France</teamN>
			<teamN>Referee/Staff/Missmatch</teamN>
		</teamNames>
	</frame>
	<frame>
		<id>134</id>
		<time>67</time>
		<gameTime>ET01:O4</gameTime>
		<gameResult>POR O-0 FRA </gameResult>
		<type>2</type>
		<location>3</location>
		<numberOfPlayers>
			<team>5</team>
			<team>2</team>
			<team>4</team>
		</numberOfPlayers>
		<teamNames>
			<teamN>France</teamN>
			<teamN>Portugal</teamN>
			<teamN>Referee/Staff/Missmatch</teamN>
		</teamNames>
	</frame>
	<frame>
		<id>135</id>
		<time>67</time>
		<gameTime>ETO1:04</gameTime>
		<gameResult>POR 0-0 FRA </gameResult>
		<type>1</type>
		<playerNames/>
		<playerRect/>
	</frame>
	<frame>
		<id>136</id>
		<time>68</time>
		<gameTime>ET01:O5</gameTime>
		<gameResult>POR O-0 FRA </gameResult>
		<type>1</type>
		<playerNames>
			<name>Ricardo Quaresma</name>
		</playerNames>
		<playerRect>
			<rect>
				<x>549</x>
				<y>401</y>
				<w>43</w>
				<h>43</h>
			</rect>
		</playerRect>
	</frame>
	<frame>
		<id>137</id>
		<time>68</time>
		<gameTime>ETO&apos;|:O5</gameTime>
		<gameResult>POR 0-0 FRA </gameResult>
		<type>2</type>
		<location>3</location>
		<numberOfPlayers>
			<team>4</team>
			<team>2</team>
			<team>3</team>
		</numberOfPlayers>
		<teamNames>
			<teamN>Portugal</teamN>
			<teamN>France</teamN>
			<teamN>Referee/Staff/Missmatch</teamN>
		</teamNames>
	</frame>
	<frame>
		<id>138</id>
		<time>69</time>
		<gameTime>ETO1:O6</gameTime>
		<gameResult>POR 0-0 FRA </gameResult>
		<type>2</type>
		<location>3</location>
		<numberOfPlayers>
			<team>4</team>
			<team>5</team>
			<team>2</team>
		</numberOfPlayers>
		<teamNames>
			<teamN>Portugal</teamN>
			<teamN>France</teamN>
			<teamN>Referee/Staff/Missmatch</teamN>
		</teamNames>
	</frame>
	<frame>
		<id>139</id>
		<time>69</time>
		<gameTime>ETO1:O6</gameTime>
		<gameResult>POR 0-0 FRA </gameResult>
		<type>2</type>
		<location>3</location>
		<numberOfPlayers>
			<team>3</team>
			<team>3</team>
			<team>3</team>
		</numberOfPlayers>
		<teamNames>
			<teamN>Portugal</teamN>
			<teamN>France</teamN>
			<teamN>Referee/Staff/Missmatch</teamN>
		</teamNames>
	</frame>
	<frame>
		<id>140</id>
		<time>70</time>
		<gameTime>ETO1:O7</gameTime>
		<gameResult>POR 0-0 FRA </gameResult>
		<type>2</type>
		<location>3</location>
		<numberOfPlayers>
			<team>5</team>
			<team>5</team>
		</numberOfPlayers>
		<teamNames>
			<teamN>Portugal</teamN>
			<teamN>France</teamN>
		</teamNames>
	</frame>
	<frame>
		<id>141</id>
		<time>70</time>
		<gameTime>ET01:O7</gameTime>
		<gameResult>POR 0-0 FRA </gameResult>
		<type>2</type>
		<location>3</location>
		<numberOfPlayers>
			<team>6</team>
			<team>3</team>
		</numberOfPlayers>
		<teamNames>
			<teamN>Portugal</teamN>
			<teamN>France</teamN>
		</teamNames>
	</frame>
	<frame>
		<id>142</id>
		<time>71</time>
		<gameTime>ET01:08</gameTime>
		<gameResult>POR 0-0 FRA </gameResult>
		<type>2</type>
		<location>3</location>
		<numberOfPlayers>
			<team>4</team>
			<team>2</team>
			<team>2</team>
		</numberOfPlayers>
		<teamNames>
			<teamN>Portugal</teamN>
			<teamN>France</teamN>
			<teamN>Referee/Staff/Missmatch</teamN>
		</teamNames>
	</frame>
	<frame>
		<id>143</id>
		<time>71</time>
		<gameTime>ET01:08</gameTime>
		<gameResult>POR 0-0 FRA </gameResult>
		<type>2</type>
		<location>3</location>
		<numberOfPlayers>
			<team>6</team>
			<team>6</team>
		</numberOfPlayers>
		<teamNames>
			<teamN>Portugal</teamN>
			<teamN>France</teamN>
		</teamNames>
	</frame>
	<frame>
		<id>144</id>
		<time>72</time>
		<gameTime>ET01:09</gameTime>
		<gameResult>POR 0-0 FRA </gameResult>
		<type>2</type>
		<location>3</location>
		<numberOfPlayers>
			<team>5</team>
			<team>5</team>
		</numberOfPlayers>
		<teamNames>
			<teamN>France</teamN>
			<teamN>Portugal</teamN>
		</teamNames>
	</frame>
	<frame>
		<id>145</id>
		<time>72</time>
		<gameTime>ETO1:09</gameTime>
		<gameResult>POR 0-0 FRA </gameResult>
		<type>2</type>
		<location>3</location>
		<numberOfPlayers>
			<team>3</team>
			<team>1</team>
			<team>2</team>
		</numberOfPlayers>
		<teamNames>
			<teamN>Portugal</teamN>
			<teamN>France</teamN>
			<teamN>Referee/Staff/Missmatch</teamN>
		</teamNames>
	</frame>
	<frame>
		<id>146</id>
		<time>73</time>
		<gameTime>ET01:‘|0</gameTime>
		<gameResult>POR 0-0 FRA </gameResult>
		<type>2</type>
		<location>3</location>
		<numberOfPlayers>
			<team>4</team>
			<team>4</team>
		</numberOfPlayers>
		<teamNames>
			<teamN>France</teamN>
			<teamN>Portugal</teamN>
		</teamNames>
	</frame>
	<frame>
		<id>147</id>
		<time>73</time>
		<gameTime>ETO1:1O</gameTime>
		<gameResult>POR 0-0 FRA </gameResult>
		<type>2</type>
		<location>3</location>
		<numberOfPlayers>
			<team>6</team>
			<team>5</team>
			<team>1</team>
		</numberOfPlayers>
		<teamNames>
			<teamN>France</teamN>
			<teamN>Portugal</teamN>
			<teamN>Referee/Staff/Missmatch</teamN>
		</teamNames>
	</frame>
	<frame>
		<id>148</id>
		<time>74</time>
		<gameTime>ETO1:11</gameTime>
		<gameResult>POR 0&apos;0 FRA </gameResult>
		<type>2</type>
		<location>3</location>
		<numberOfPlayers>
			<team>6</team>
			<team>6</team>
			<team>1</team>
		</numberOfPlayers>
		<teamNames>
			<teamN>Portugal</teamN>
			<teamN>France</teamN>
			<teamN>Referee/Staff/Missmatch</teamN>
		</teamNames>
	</frame>
	<frame>
		<id>149</id>
		<time>74</time>
		<gameTime>ETO1:11</gameTime>
		<gameResult>I POR 0&apos;0 FRA </gameResult>
		<type>2</type>
		<location>3</location>
		<numberOfPlayers>
			<team>7</team>
			<team>5</team>
		</numberOfPlayers>
		<teamNames>
			<teamN>France</teamN>
			<teamN>Portugal</teamN>
		</teamNames>
	</frame>
	<frame>
		<id>150</id>
		<time>75</time>
		<gameTime>ETO1:12</gameTime>
		<gameResult>POR 0&apos;0 FRA </gameResult>
		<type>2</type>
		<location>3</location>
		<numberOfPlayers>
			<team>11</team>
			<team>3</team>
			<team>1</team>
		</numberOfPlayers>
		<teamNames>
			<teamN>Portugal</teamN>
			<teamN>France</teamN>
			<teamN>Referee/Staff/Missmatch</teamN>
		</teamNames>
	</frame>
	<frame>
		<id>151</id>
		<time>75</time>
		<gameTime>ETO1:12</gameTime>
		<gameResult>POR 0-0 FRA </gameResult>
		<type>2</type>
		<location>3</location>
		<numberOfPlayers>
			<team>8</team>
			<team>7</team>
		</numberOfPlayers>
		<teamNames>
			<teamN>France</teamN>
			<teamN>Portugal</teamN>
		</teamNames>
	</frame>
	<frame>
		<id>152</id>
		<time>76</time>
		<gameTime>ETO1:13</gameTime>
		<gameResult>3 POR 0-0 FRA </gameResult>
		<type>2</type>
		<location>3</location>
		<numberOfPlayers>
			<team>5</team>
			<team>8</team>
			<team>1</team>
		</numberOfPlayers>
		<teamNames>
			<teamN>Portugal</teamN>
			<teamN>France</teamN>
			<teamN>Referee/Staff/Missmatch</teamN>
		</teamNames>
	</frame>
	<frame>
		<id>153</id>
		<time>76</time>
		<gameTime>ETO1:1I</gameTime>
		<gameResult>3 POR 0-0 FRA </gameResult>
		<type>2</type>
		<location>3</location>
		<numberOfPlayers>
			<team>7</team>
			<team>4</team>
			<team>1</team>
		</numberOfPlayers>
		<teamNames>
			<teamN>France</teamN>
			<teamN>Portugal</teamN>
			<teamN>Referee/Staff/Missmatch</teamN>
		</teamNames>
	</frame>
	<frame>
		<id>154</id>
		<time>77</time>
		<gameTime>ETO1:14</gameTime>
		<gameResult>. . POR 0-0 FRA </gameResult>
		<type>2</type>
		<location>4</location>
		<numberOfPlayers>
			<team>6</team>
			<team>4</team>
			<team>1</team>
		</numberOfPlayers>
		<teamNames>
			<teamN>Portugal</teamN>
			<teamN>France</teamN>
			<teamN>Referee/Staff/Missmatch</teamN>
		</teamNames>
	</frame>
	<frame>
		<id>155</id>
		<time>77</time>
		<gameTime>ETO1:14</gameTime>
		<gameResult>POR 0-0 FRA </gameResult>
		<type>2</type>
		<location>4</location>
		<numberOfPlayers>
			<team>6</team>
			<team>2</team>
		</numberOfPlayers>
		<teamNames>
			<teamN>Portugal</teamN>
			<teamN>France</teamN>
		</teamNames>
	</frame>
	<frame>
		<id>156</id>
		<time>78</time>
		<gameTime>ETO1:1f</gameTime>
		<gameResult>5 FOR 0-0 FRA </gameResult>
		<type>2</type>
		<location>4</location>
		<numberOfPlayers>
			<team>5</team>
			<team>1</team>
		</numberOfPlayers>
		<teamNames>
			<teamN>Portugal</teamN>
			<teamN>France</teamN>
		</teamNames>
	</frame>
	<frame>
		<id>157</id>
		<time>78</time>
		<gameTime>1:1</gameTime>
		<gameResult>Q0. . S POR 0-0 FRA </gameResult>
		<type>2</type>
		<location>4</location>
		<numberOfPlayers>
			<team>5</team>
			<team>4</team>
		</numberOfPlayers>
		<teamNames>
			<teamN>France</teamN>
			<teamN>Portugal</teamN>
		</teamNames>
	</frame>
	<frame>
		<id>158</id>
		<time>79</time>
		<gameTime>1:1</gameTime>
		<gameResult>U0. . POR 0-0 FRA </gameResult>
		<type>2</type>
		<location>5</location>
		<numberOfPlayers>
			<team>6</team>
			<team>2</team>
		</numberOfPlayers>
		<teamNames>
			<teamN>Portugal</teamN>
			<teamN>France</teamN>
		</teamNames>
	</frame>
	<frame>
		<id>159</id>
		<time>79</time>
		<gameTime>E‘r01:1I</gameTime>
		<gameResult>. POR 0-0 FRA </gameResult>
		<type>2</type>
		<location>2</location>
		<numberOfPlayers>
			<team>5</team>
			<team>4</team>
		</numberOfPlayers>
		<teamNames>
			<teamN>Portugal</teamN>
			<teamN>France</teamN>
		</teamNames>
	</frame>
	<frame>
		<id>160</id>
		<time>80</time>
		<gameTime>ETO]:1</gameTime>
		<gameResult>7 POR 0-0 FRA </gameResult>
		<type>2</type>
		<location>2</location>
		<numberOfPlayers>
			<team>5</team>
			<team>4</team>
		</numberOfPlayers>
		<teamNames>
			<teamN>Portugal</teamN>
			<teamN>France</teamN>
		</teamNames>
	</frame>
	<frame>
		<id>161</id>
		<time>80</time>
		<gameTime>5701:‘.</gameTime>
		<gameResult>7 POR O-0 FRA </gameResult>
		<type>1</type>
		<playerNames/>
		<playerRect/>
	</frame>
	<frame>
		<id>162</id>
		<time>81</time>
		<gameTime>ET01:1:</gameTime>
		<gameResult>8 POR 0-0 FRA </gameResult>
		<type>1</type>
		<playerNames/>
		<playerRect/>
	</frame>
	<frame>
		<id>163</id>
		<time>81</time>
		<gameTime>ET01:1:</gameTime>
		<gameResult>POR 0&apos;0 FRA </gameResult>
		<type>1</type>
		<playerNames>
			<name>Cristiano Ronaldo</name>
		</playerNames>
		<playerRect>
			<rect>
				<x>698</x>
				<y>30</y>
				<w>23</w>
				<h>23</h>
			</rect>
		</playerRect>
	</frame>
	<frame>
		<id>164</id>
		<time>82</time>
		<gameTime>ET01:1!</gameTime>
		<gameResult>. POR 0-0 FRA </gameResult>
		<type>1</type>
		<playerNames>
			<name>Martial</name>
		</playerNames>
		<playerRect>
			<rect>
				<x>25</x>
				<y>3</y>
				<w>30</w>
				<h>30</h>
			</rect>
		</playerRect>
	</frame>
	<frame>
		<id>165</id>
		<time>82</time>
		<gameTime>ET01:11</gameTime>
		<gameResult>. POR 0-0 FRA </gameResult>
		<type>1</type>
		<playerNames>
			<name>Jose Fonte</name>
		</playerNames>
		<playerRect>
			<rect>
				<x>30</x>
				<y>4</y>
				<w>27</w>
				<h>27</h>
			</rect>
		</playerRect>
	</frame>
	<frame>
		<id>166</id>
		<time>83</time>
		<gameTime>ETO1:2O</gameTime>
		<gameResult>POR 0-0 FRA </gameResult>
		<type>2</type>
		<location>2</location>
		<numberOfPlayers>
			<team>4</team>
			<team>2</team>
		</numberOfPlayers>
		<teamNames>
			<teamN>Portugal</teamN>
			<teamN>France</teamN>
		</teamNames>
	</frame>
	<frame>
		<id>167</id>
		<time>83</time>
		<gameTime>ETO1:</gameTime>
		<gameResult>POR 0-0 FRA </gameResult>
		<type>2</type>
		<location>2</location>
		<numberOfPlayers>
			<team>4</team>
			<team>2</team>
		</numberOfPlayers>
		<teamNames>
			<teamN>Portugal</teamN>
			<teamN>France</teamN>
		</teamNames>
	</frame>
	<frame>
		<id>168</id>
		<time>84</time>
		<gameTime>ETO1:</gameTime>
		<gameResult>POR O-0 FRA </gameResult>
		<type>2</type>
		<location>2</location>
		<numberOfPlayers>
			<team>4</team>
			<team>2</team>
			<team>1</team>
		</numberOfPlayers>
		<teamNames>
			<teamN>Portugal</teamN>
			<teamN>France</teamN>
			<teamN>Referee/Staff/Missmatch</teamN>
		</teamNames>
	</frame>
	<frame>
		<id>169</id>
		<time>84</time>
		<gameTime>ET01:21</gameTime>
		<gameResult>POR 0-0 FRA </gameResult>
		<type>2</type>
		<location>2</location>
		<numberOfPlayers>
			<team>3</team>
			<team>3</team>
		</numberOfPlayers>
		<teamNames>
			<teamN>Portugal</teamN>
			<teamN>France</teamN>
		</teamNames>
	</frame>
	<frame>
		<id>170</id>
		<time>85</time>
		<gameTime>ET01:22</gameTime>
		<gameResult>POR 0&apos;0 FRA </gameResult>
		<type>2</type>
		<location>5</location>
		<numberOfPlayers>
			<team>3</team>
			<team>4</team>
		</numberOfPlayers>
		<teamNames>
			<teamN>Portugal</teamN>
			<teamN>France</teamN>
		</teamNames>
	</frame>
	<frame>
		<id>171</id>
		<time>85</time>
		<gameTime>ET01:22</gameTime>
		<gameResult>POR 0-0 FRA </gameResult>
		<type>2</type>
		<location>2</location>
		<numberOfPlayers>
			<team>3</team>
			<team>4</team>
			<team>2</team>
		</numberOfPlayers>
		<teamNames>
			<teamN>Portugal</teamN>
			<teamN>France</teamN>
			<teamN>Referee/Staff/Missmatch</teamN>
		</teamNames>
	</frame>
	<frame>
		<id>172</id>
		<time>86</time>
		<gameTime>ETO1:</gameTime>
		<gameResult>POR 0-0 FRA </gameResult>
		<type>2</type>
		<location>5</location>
		<numberOfPlayers>
			<team>3</team>
			<team>4</team>
		</numberOfPlayers>
		<teamNames>
			<teamN>France</teamN>
			<teamN>Portugal</teamN>
		</teamNames>
	</frame>
	<frame>
		<id>173</id>
		<time>86</time>
		<gameTime>ETO1:</gameTime>
		<gameResult>POR 0-0 FRA </gameResult>
		<type>2</type>
		<location>5</location>
		<numberOfPlayers>
			<team>5</team>
			<team>4</team>
		</numberOfPlayers>
		<teamNames>
			<teamN>France</teamN>
			<teamN>Portugal</teamN>
		</teamNames>
	</frame>
	<frame>
		<id>174</id>
		<time>87</time>
		<gameTime>ET01:24</gameTime>
		<gameResult>FOR 0-0 FRA </gameResult>
		<type>2</type>
		<location>5</location>
		<numberOfPlayers>
			<team>3</team>
			<team>4</team>
			<team>1</team>
		</numberOfPlayers>
		<teamNames>
			<teamN>Portugal</teamN>
			<teamN>France</teamN>
			<teamN>Referee/Staff/Missmatch</teamN>
		</teamNames>
	</frame>
	<frame>
		<id>175</id>
		<time>87</time>
		<gameTime>ETO1:24</gameTime>
		<gameResult>POR 0-0 FRA </gameResult>
		<type>2</type>
		<location>5</location>
		<numberOfPlayers>
			<team>3</team>
			<team>4</team>
			<team>2</team>
		</numberOfPlayers>
		<teamNames>
			<teamN>Portugal</teamN>
			<teamN>France</teamN>
			<teamN>Referee/Staff/Missmatch</teamN>
		</teamNames>
	</frame>
	<frame>
		<id>176</id>
		<time>88</time>
		<gameTime>ET01:2S</gameTime>
		<gameResult>POR O-0 FRA </gameResult>
		<type>2</type>
		<location>5</location>
		<numberOfPlayers>
			<team>4</team>
			<team>4</team>
			<team>1</team>
		</numberOfPlayers>
		<teamNames>
			<teamN>Portugal</teamN>
			<teamN>France</teamN>
			<teamN>Referee/Staff/Missmatch</teamN>
		</teamNames>
	</frame>
	<frame>
		<id>177</id>
		<time>88</time>
		<gameTime>ET01:2S</gameTime>
		<gameResult>POR O-0 FRA </gameResult>
		<type>2</type>
		<location>5</location>
		<numberOfPlayers>
			<team>4</team>
			<team>5</team>
			<team>1</team>
		</numberOfPlayers>
		<teamNames>
			<teamN>Portugal</teamN>
			<teamN>France</teamN>
			<teamN>Referee/Staff/Missmatch</teamN>
		</teamNames>
	</frame>
	<frame>
		<id>178</id>
		<time>89</time>
		<gameTime>ETO1:26</gameTime>
		<gameResult>POR 0-0 FRA </gameResult>
		<type>2</type>
		<location>5</location>
		<numberOfPlayers>
			<team>5</team>
			<team>3</team>
			<team>1</team>
		</numberOfPlayers>
		<teamNames>
			<teamN>France</teamN>
			<teamN>Portugal</teamN>
			<teamN>Referee/Staff/Missmatch</teamN>
		</teamNames>
	</frame>
	<frame>
		<id>179</id>
		<time>89</time>
		<gameTime>ET01:26</gameTime>
		<gameResult>POR 0-0 FRA </gameResult>
		<type>2</type>
		<location>3</location>
		<numberOfPlayers>
			<team>4</team>
			<team>4</team>
		</numberOfPlayers>
		<teamNames>
			<teamN>France</teamN>
			<teamN>Portugal</teamN>
		</teamNames>
	</frame>
	<frame>
		<id>180</id>
		<time>90</time>
		<gameTime>ET01:27</gameTime>
		<gameResult>POR 0-0 FRA </gameResult>
		<type>2</type>
		<location>3</location>
		<numberOfPlayers>
			<team>3</team>
			<team>4</team>
			<team>1</team>
		</numberOfPlayers>
		<teamNames>
			<teamN>Portugal</teamN>
			<teamN>France</teamN>
			<teamN>Referee/Staff/Missmatch</teamN>
		</teamNames>
	</frame>
	<frame>
		<id>181</id>
		<time>90</time>
		<gameTime>ET01:</gameTime>
		<gameResult>POR 0-0 FRA </gameResult>
		<type>2</type>
		<location>3</location>
		<numberOfPlayers>
			<team>3</team>
			<team>5</team>
			<team>1</team>
		</numberOfPlayers>
		<teamNames>
			<teamN>Portugal</teamN>
			<teamN>France</teamN>
			<teamN>Referee/Staff/Missmatch</teamN>
		</teamNames>
	</frame>
	<frame>
		<id>182</id>
		<time>91</time>
		<gameTime>ET01:</gameTime>
		<gameResult>POR O-0 FRA </gameResult>
		<type>2</type>
		<location>5</location>
		<numberOfPlayers>
			<team>3</team>
			<team>5</team>
			<team>1</team>
		</numberOfPlayers>
		<teamNames>
			<teamN>Portugal</teamN>
			<teamN>France</teamN>
			<teamN>Referee/Staff/Missmatch</teamN>
		</teamNames>
	</frame>
	<frame>
		<id>183</id>
		<time>91</time>
		<gameTime>ET01:28</gameTime>
		<gameResult>FOR O-0 FRA </gameResult>
		<type>2</type>
		<location>3</location>
		<numberOfPlayers>
			<team>3</team>
			<team>4</team>
			<team>1</team>
		</numberOfPlayers>
		<teamNames>
			<teamN>France</teamN>
			<teamN>Portugal</teamN>
			<teamN>Referee/Staff/Missmatch</teamN>
		</teamNames>
	</frame>
	<frame>
		<id>184</id>
		<time>92</time>
		<gameTime>ET01:29</gameTime>
		<gameResult>POR 0-0 FRA </gameResult>
		<type>2</type>
		<location>3</location>
		<numberOfPlayers>
			<team>4</team>
			<team>5</team>
		</numberOfPlayers>
		<teamNames>
			<teamN>France</teamN>
			<teamN>Portugal</teamN>
		</teamNames>
	</frame>
	<frame>
		<id>185</id>
		<time>92</time>
		<gameTime>ET01:29</gameTime>
		<gameResult>POR 0-0 FRA </gameResult>
		<type>2</type>
		<location>5</location>
		<numberOfPlayers>
			<team>5</team>
			<team>4</team>
		</numberOfPlayers>
		<teamNames>
			<teamN>Portugal</teamN>
			<teamN>France</teamN>
		</teamNames>
	</frame>
	<frame>
		<id>186</id>
		<time>93</time>
		<gameTime>ET01:30</gameTime>
		<gameResult>POR O-0 FRA </gameResult>
		<type>2</type>
		<location>3</location>
		<numberOfPlayers>
			<team>5</team>
			<team>5</team>
		</numberOfPlayers>
		<teamNames>
			<teamN>Portugal</teamN>
			<teamN>France</teamN>
		</teamNames>
	</frame>
	<frame>
		<id>187</id>
		<time>93</time>
		<gameTime>ET01:30</gameTime>
		<gameResult>POR O-0 FRA </gameResult>
		<type>2</type>
		<location>3</location>
		<numberOfPlayers>
			<team>5</team>
			<team>4</team>
		</numberOfPlayers>
		<teamNames>
			<teamN>Portugal</teamN>
			<teamN>France</teamN>
		</teamNames>
	</frame>
	<frame>
		<id>188</id>
		<time>94</time>
		<gameTime>ET01:31</gameTime>
		<gameResult>POR O-0 FRA </gameResult>
		<type>2</type>
		<location>3</location>
		<numberOfPlayers>
			<team>5</team>
			<team>4</team>
		</numberOfPlayers>
		<teamNames>
			<teamN>France</teamN>
			<teamN>Portugal</teamN>
		</teamNames>
	</frame>
	<frame>
		<id>189</id>
		<time>94</time>
		<gameTime>ET01:31</gameTime>
		<gameResult>POR 0-0 FRA </gameResult>
		<type>2</type>
		<location>3</location>
		<numberOfPlayers>
			<team>5</team>
			<team>5</team>
		</numberOfPlayers>
		<teamNames>
			<teamN>France</teamN>
			<teamN>Portugal</teamN>
		</teamNames>
	</frame>
	<frame>
		<id>190</id>
		<time>95</time>
		<gameTime>ET01:32</gameTime>
		<gameResult>POR 0-0 FRA </gameResult>
		<type>2</type>
		<location>3</location>
		<numberOfPlayers>
			<team>5</team>
			<team>5</team>
		</numberOfPlayers>
		<teamNames>
			<teamN>Portugal</teamN>
			<teamN>France</teamN>
		</teamNames>
	</frame>
	<frame>
		<id>191</id>
		<time>95</time>
		<gameTime>ET01:32</gameTime>
		<gameResult>POR 0-0 FRA </gameResult>
		<type>2</type>
		<location>3</location>
		<numberOfPlayers>
			<team>5</team>
			<team>5</team>
		</numberOfPlayers>
		<teamNames>
			<teamN>Portugal</teamN>
			<teamN>France</teamN>
		</teamNames>
	</frame>
	<frame>
		<id>192</id>
		<time>96</time>
		<gameTime>ET01:</gameTime>
		<gameResult>POR 0-0 FRA </gameResult>
		<type>2</type>
		<location>3</location>
		<numberOfPlayers>
			<team>5</team>
			<team>5</team>
		</numberOfPlayers>
		<teamNames>
			<teamN>Portugal</teamN>
			<teamN>France</teamN>
		</teamNames>
	</frame>
	<frame>
		<id>193</id>
		<time>96</time>
		<gameTime>ET01:</gameTime>
		<gameResult>POR 0-0 FRA </gameResult>
		<type>2</type>
		<location>3</location>
		<numberOfPlayers>
			<team>5</team>
			<team>5</team>
		</numberOfPlayers>
		<teamNames>
			<teamN>France</teamN>
			<teamN>Portugal</teamN>
		</teamNames>
	</frame>
	<frame>
		<id>194</id>
		<time>97</time>
		<gameTime>ET01:34</gameTime>
		<gameResult>POR 0-0 FRA </gameResult>
		<type>2</type>
		<location>3</location>
		<numberOfPlayers>
			<team>5</team>
			<team>5</team>
		</numberOfPlayers>
		<teamNames>
			<teamN>France</teamN>
			<teamN>Portugal</teamN>
		</teamNames>
	</frame>
	<frame>
		<id>195</id>
		<time>97</time>
		<gameTime>ET01:34</gameTime>
		<gameResult>POR 0-0 FRA </gameResult>
		<type>2</type>
		<location>4</location>
		<numberOfPlayers>
			<team>5</team>
			<team>5</team>
		</numberOfPlayers>
		<teamNames>
			<teamN>France</teamN>
			<teamN>Portugal</teamN>
		</teamNames>
	</frame>
	<frame>
		<id>196</id>
		<time>98</time>
		<gameTime>ET01:3S</gameTime>
		<gameResult>POR 0-0 FRA </gameResult>
		<type>2</type>
		<location>4</location>
		<numberOfPlayers>
			<team>5</team>
			<team>5</team>
		</numberOfPlayers>
		<teamNames>
			<teamN>France</teamN>
			<teamN>Portugal</teamN>
		</teamNames>
	</frame>
	<frame>
		<id>197</id>
		<time>98</time>
		<gameTime>ETO1:3S</gameTime>
		<gameResult>POR 0-0 FRA </gameResult>
		<type>2</type>
		<location>4</location>
		<numberOfPlayers>
			<team>5</team>
			<team>5</team>
		</numberOfPlayers>
		<teamNames>
			<teamN>Portugal</teamN>
			<teamN>France</teamN>
		</teamNames>
	</frame>
	<frame>
		<id>198</id>
		<time>99</time>
		<gameTime>ETO1:36</gameTime>
		<gameResult>POR 0-0 FRA </gameResult>
		<type>2</type>
		<location>3</location>
		<numberOfPlayers>
			<team>5</team>
			<team>5</team>
		</numberOfPlayers>
		<teamNames>
			<teamN>Portugal</teamN>
			<teamN>France</teamN>
		</teamNames>
	</frame>
	<frame>
		<id>199</id>
		<time>99</time>
		<gameTime>ET01:36</gameTime>
		<gameResult>POR 0-0 FRA </gameResult>
		<type>2</type>
		<location>3</location>
		<numberOfPlayers>
			<team>7</team>
			<team>3</team>
			<team>2</team>
		</numberOfPlayers>
		<teamNames>
			<teamN>Portugal</teamN>
			<teamN>France</teamN>
			<teamN>Referee/Staff/Missmatch</teamN>
		</teamNames>
	</frame>
</video>

